mainTestTrace.vcd
$date
	Mon Jul 22 20:36:25 2024
$end
$version
	Icarus Verilog
$end
$timescale
	1s
$end
$scope module mainTestBench $end
$var reg 1 ! clk $end
$var reg 1 " rst_ $end
$scope module DUT $end
$var wire 1 # C_MEM_IN $end
$var wire 1 $ PCUpdateEnable_IF_IN $end
$var wire 32 % PC_Plus_Immediate_IF_IN [31:0] $end
$var wire 32 & PC_Plus_Immediate_WB_IN [31:0] $end
$var wire 32 ' Y_WB_IN [31:0] $end
$var wire 1 ( Z_MEM_IN $end
$var wire 2 ) aluOp_EX_IN [1:0] $end
$var wire 4 * aluOpcode_MEM_IN [3:0] $end
$var wire 1 + assertBOJ_IF_IN $end
$var wire 1 , branch_MEM_IN $end
$var wire 1 ! clk $end
$var wire 32 - dataMemAddr_MEM_IN [31:0] $end
$var wire 32 . immediate_EX_IN [31:0] $end
$var wire 32 / instruction_EX_IN [31:0] $end
$var wire 32 0 instruction_ID_IN [31:0] $end
$var wire 1 1 jump_MEM_IN $end
$var wire 1 2 memRd_MEM_IN $end
$var wire 1 3 memRd_fromID_EX_HD_IN $end
$var wire 2 4 memToReg_WB_IN [1:0] $end
$var wire 1 5 memWrt_MEM_IN $end
$var wire 32 6 rdDataMem_WB_IN [31:0] $end
$var wire 1 7 regWrt_ID_IN $end
$var wire 1 8 regWrt_fromEXMEM_FW_IN $end
$var wire 1 9 regWrt_fromMEMWB_FW_IN $end
$var wire 5 : rs1_FW_IN [4:0] $end
$var wire 5 ; rs2_FW_IN [4:0] $end
$var wire 1 " rst_ $end
$var wire 1 < rst_ctrl_EX_MEM $end
$var wire 1 = rst_ctrl_ID_EX $end
$var wire 1 > rst_ctrl_MEM_WB $end
$var wire 1 ? rst_ins_IF_ID $end
$var wire 32 @ wrtDataMem_MEM_IN [31:0] $end
$var wire 32 A wrtData_ID_IN [31:0] $end
$var wire 5 B wrtReg_ID_IN [4:0] $end
$var wire 2 C sel2_FW_OUT [1:0] $end
$var wire 2 D sel1_FW_OUT [1:0] $end
$var wire 5 E rs2_fromIF_ID_HD_IN [4:0] $end
$var wire 5 F rs1_fromIF_ID_HD_IN [4:0] $end
$var wire 1 G regWrt_ID_OUT $end
$var wire 32 H regWrtData_WB_OUT [31:0] $end
$var wire 5 I rdst_fromMEMWB_FW_IN [4:0] $end
$var wire 5 J rdst_fromID_EX_HD_IN [4:0] $end
$var wire 5 K rdst_fromEXMEM_FW_IN [4:0] $end
$var wire 5 L rdReg2_ID_IN [4:0] $end
$var wire 5 M rdReg1_ID_IN [4:0] $end
$var wire 32 N rdDataMem_MEM_OUT [31:0] $end
$var wire 32 O rdData2_ID_OUT [31:0] $end
$var wire 32 P rdData2_EX_IN [31:0] $end
$var wire 32 Q rdData1_ID_OUT [31:0] $end
$var wire 32 R rdData1_EX_IN [31:0] $end
$var wire 32 S newRdData2_EX_OUT [31:0] $end
$var wire 1 T memWrt_ID_OUT $end
$var wire 2 U memToReg_ID_OUT [1:0] $end
$var wire 1 V memRd_ID_OUT $end
$var wire 1 W jump_ID_OUT $end
$var wire 1 X insAddrInvalid_IF_OUT $end
$var wire 32 Y immGenOut_ID_OUT [31:0] $end
$var wire 1 Z haltDetect_MEM $end
$var wire 32 [ curInstrn_IF_OUT [31:0] $end
$var wire 32 \ curInstrnAddr_IF_OUT [31:0] $end
$var wire 32 ] curInstrnAddr_EX_IN [31:0] $end
$var wire 1 ^ branch_ID_OUT $end
$var wire 1 _ assertBOJ_MEM_OUT $end
$var wire 1 ` aluSrc_ID_OUT $end
$var wire 1 a aluSrc_EX_IN $end
$var wire 4 b aluOpcode_EX_OUT [3:0] $end
$var wire 2 c aluOp_ID_OUT [1:0] $end
$var wire 1 d Z_EX_OUT $end
$var wire 32 e Y_EX_OUT [31:0] $end
$var wire 32 f PC_Plus_Immediate_EX_OUT [31:0] $end
$var wire 1 g PCUpdateEnable_HD_OUT $end
$var wire 1 h NOP_ID_EX_State_Reg $end
$var wire 1 i IF_ID_UpdateEnable_HD_OUT $end
$var wire 1 j C_EX_OUT $end
$var reg 1 # C_EX_MEM $end
$var reg 32 k PC_PlusImmediate_EX_MEM [31:0] $end
$var reg 32 l PC_Plus_Immediate_MEM_WB [31:0] $end
$var reg 32 m Y_EX_MEM [31:0] $end
$var reg 32 n Y_MEM_WB [31:0] $end
$var reg 1 ( Z_EX_MEM $end
$var reg 2 o aluOp_EX_MEM [1:0] $end
$var reg 2 p aluOp_ID_EX [1:0] $end
$var reg 4 q aluOpcode_EX_MEM [3:0] $end
$var reg 1 a aluSrc_ID_EX $end
$var reg 1 , branch_EX_MEM $end
$var reg 1 r branch_ID_EX $end
$var reg 32 s immGenOut_ID_EX [31:0] $end
$var reg 32 t instrnAddr_ID_EX [31:0] $end
$var reg 32 u instrnAddr_IF_ID [31:0] $end
$var reg 32 v instruction_EX_MEM [31:0] $end
$var reg 32 w instruction_ID_EX [31:0] $end
$var reg 32 x instruction_IF_ID [31:0] $end
$var reg 32 y instruction_MEM_WB [31:0] $end
$var reg 1 1 jump_EX_MEM $end
$var reg 1 z jump_ID_EX $end
$var reg 1 2 memRd_EX_MEM $end
$var reg 1 3 memRd_ID_EX $end
$var reg 2 { memToReg_EX_MEM [1:0] $end
$var reg 2 | memToReg_ID_EX [1:0] $end
$var reg 2 } memToReg_MEM_WB [1:0] $end
$var reg 1 ~ memWrt_EX_MEM $end
$var reg 1 !" memWrt_ID_EX $end
$var reg 32 "" rdData1_ID_EX [31:0] $end
$var reg 32 #" rdData2_EX_MEM [31:0] $end
$var reg 32 $" rdData2_ID_EX [31:0] $end
$var reg 32 %" rdDataMem_MEM_WB [31:0] $end
$var reg 1 8 regWrt_EX_MEM $end
$var reg 1 &" regWrt_ID_EX $end
$var reg 1 '" regWrt_MEM_WB $end
$var reg 5 (" rs1_ID_EX [4:0] $end
$var reg 5 )" rs2_ID_EX [4:0] $end
$scope module EX $end
$var wire 32 *" PC [31:0] $end
$var wire 2 +" aluOp [1:0] $end
$var wire 4 ," aluOpcode [3:0] $end
$var wire 1 a aluSrc $end
$var wire 32 -" dataMemAddr [31:0] $end
$var wire 32 ." immediate [31:0] $end
$var wire 32 /" instruction [31:0] $end
$var wire 32 0" rdData1 [31:0] $end
$var wire 32 1" rdData2 [31:0] $end
$var wire 32 2" wrtBackData [31:0] $end
$var wire 2 3" srcB [1:0] $end
$var wire 2 4" srcA [1:0] $end
$var wire 32 5" newRdData2 [31:0] $end
$var wire 4 6" aluControl [3:0] $end
$var wire 1 d Z $end
$var wire 32 7" Y [31:0] $end
$var wire 32 8" PC_Plus_Immediate [31:0] $end
$var wire 1 j C $end
$var wire 32 9" B [31:0] $end
$var wire 32 :" A [31:0] $end
$scope module ALU $end
$var wire 32 ;" A [31:0] $end
$var wire 32 <" B [31:0] $end
$var wire 1 d zero $end
$var wire 4 =" opcode [3:0] $end
$var wire 1 j carry $end
$var reg 32 >" Y [31:0] $end
$var reg 1 ?" adder_out $end
$upscope $end
$scope module aluControlUnit $end
$var wire 2 @" aluOp [1:0] $end
$var wire 3 A" funct3 [2:0] $end
$var wire 1 B" funct7 $end
$var wire 7 C" instrnOpcode [6:0] $end
$var reg 4 D" aluControl [3:0] $end
$upscope $end
$upscope $end
$scope module FW $end
$var wire 1 E" check_EX_MEM $end
$var wire 1 F" check_MEM_WB $end
$var wire 5 G" rdst_EX_MEM [4:0] $end
$var wire 5 H" rdst_MEM_WB [4:0] $end
$var wire 1 8 regWrt_EX_MEM $end
$var wire 1 9 regWrt_MEM_WB $end
$var wire 5 I" rs1 [4:0] $end
$var wire 5 J" rs2 [4:0] $end
$var reg 2 K" srcA [1:0] $end
$var reg 2 L" srcB [1:0] $end
$upscope $end
$scope module HD $end
$var wire 1 i IF_ID_UpdateEnable $end
$var wire 1 g PCUpdateEnable $end
$var wire 1 M" check_rs1 $end
$var wire 1 N" check_rs2 $end
$var wire 1 h controlSelect $end
$var wire 1 3 memRd_ID_EX $end
$var wire 5 O" rdst_ID_EX [4:0] $end
$var wire 5 P" rs1 [4:0] $end
$var wire 5 Q" rs2 [4:0] $end
$upscope $end
$scope module ID $end
$var wire 1 ! clk $end
$var wire 32 R" instruction [31:0] $end
$var wire 5 S" rdReg1 [4:0] $end
$var wire 5 T" rdReg2 [4:0] $end
$var wire 1 7 regWrtIn $end
$var wire 1 " rst_ $end
$var wire 32 U" wrtData [31:0] $end
$var wire 5 V" wrtReg [4:0] $end
$var wire 1 G regWrtOut $end
$var wire 32 W" rdData2 [31:0] $end
$var wire 32 X" rdData1 [31:0] $end
$var wire 1 T memWrt $end
$var wire 2 Y" memToReg [1:0] $end
$var wire 1 V memRd $end
$var wire 1 W jump $end
$var wire 32 Z" immediate [31:0] $end
$var wire 1 ^ branch $end
$var wire 1 ` aluSrc $end
$var wire 2 [" aluOp [1:0] $end
$scope module controlUnit $end
$var wire 32 \" instruction [31:0] $end
$var reg 2 ]" aluOp [1:0] $end
$var reg 1 ` aluSrc $end
$var reg 1 ^ branch $end
$var reg 1 W jump $end
$var reg 1 V memRd $end
$var reg 2 ^" memToReg [1:0] $end
$var reg 1 T memWrt $end
$var reg 1 G regWrt $end
$upscope $end
$scope module immGenerator $end
$var wire 32 _" instruction [31:0] $end
$var reg 32 `" immediate [31:0] $end
$upscope $end
$scope module registerFile $end
$var wire 1 ! clk $end
$var wire 32 a" rdData1 [31:0] $end
$var wire 32 b" rdData2 [31:0] $end
$var wire 5 c" rdReg1 [4:0] $end
$var wire 5 d" rdReg2 [4:0] $end
$var wire 1 " rst_ $end
$var wire 32 e" wrtData [31:0] $end
$var wire 1 7 wrtEn $end
$var wire 5 f" wrtReg [4:0] $end
$scope begin $ivl_for_loop2 $end
$var integer 32 g" i [31:0] $end
$upscope $end
$upscope $end
$upscope $end
$scope module IF $end
$var wire 1 $ PCEnable $end
$var wire 1 + PCSrc $end
$var wire 32 h" PC_Copy [31:0] $end
$var wire 32 i" PC_Plus_Immediate [31:0] $end
$var wire 1 ! clk $end
$var wire 1 " rst_ $end
$var wire 32 j" curInstrn [31:0] $end
$var wire 32 k" PCNext [31:0] $end
$var reg 32 l" PC [31:0] $end
$scope module instrnMem1KB $end
$var wire 32 m" addr [31:0] $end
$var wire 32 n" instrn [31:0] $end
$scope begin $ivl_for_loop1 $end
$var integer 32 o" i [31:0] $end
$upscope $end
$upscope $end
$upscope $end
$scope module MEM $end
$var wire 1 # C $end
$var wire 1 ( Z $end
$var wire 4 p" aluOpcode [3:0] $end
$var wire 1 _ assertBOJ $end
$var wire 1 , branch $end
$var wire 1 ! clk $end
$var wire 32 q" dataMemAddr [31:0] $end
$var wire 1 1 jump $end
$var wire 1 2 memRd $end
$var wire 1 5 memWrt $end
$var wire 1 " rst_ $end
$var wire 32 r" wrtDataMem [31:0] $end
$var wire 32 s" rdDataMem [31:0] $end
$var wire 1 t" branchCondition $end
$scope module dataMem8KB $end
$var wire 32 u" addr [31:0] $end
$var wire 1 ! clk $end
$var wire 32 v" dataIn [31:0] $end
$var wire 1 2 memRd $end
$var wire 1 5 memWrt $end
$var wire 1 " rst_ $end
$var wire 32 w" dataOut [31:0] $end
$scope begin $ivl_for_loop0 $end
$var integer 32 x" i [31:0] $end
$upscope $end
$upscope $end
$upscope $end
$scope module WB $end
$var wire 32 y" PC_Plus_Immediate [31:0] $end
$var wire 32 z" Y [31:0] $end
$var wire 2 {" memToReg [1:0] $end
$var wire 32 |" rdDataMem [31:0] $end
$var wire 32 }" regWrtData [31:0] $end
$upscope $end
$upscope $end
$upscope $end
$enddefinitions $end
#0
$dumpvars
bx }"
bx |"
bx {"
bx z"
bx y"
b100000000000 x"
bx w"
bx v"
bx u"
0t"
bx s"
bx r"
bx q"
bx p"
b10000000 o"
b100000000001010010011 n"
b0 m"
b0 l"
bx k"
b100000000001010010011 j"
bx i"
b0 h"
b100000 g"
bx f"
bx e"
bx d"
bx c"
bx b"
bx a"
bx `"
bx _"
bx ^"
bx ]"
bx \"
bx ["
bx Z"
bx Y"
bx X"
bx W"
bx V"
bx U"
bx T"
bx S"
bx R"
bx Q"
bx P"
bx O"
xN"
xM"
bx L"
bx K"
bx J"
bx I"
bx H"
bx G"
xF"
xE"
bx D"
bx C"
xB"
bx A"
bx @"
x?"
bx >"
bx ="
bx <"
bx ;"
bx :"
bx 9"
bx 8"
bx 7"
bx 6"
bx 5"
bx 4"
bx 3"
bx 2"
bx 1"
bx 0"
bx /"
bx ."
bx -"
bx ,"
bx +"
bx *"
bx )"
bx ("
x'"
x&"
bx %"
bx $"
bx #"
bx ""
x!"
x~
bx }
bx |
bx {
xz
bx y
bx x
bx w
bx v
bx u
bx t
bx s
xr
bx q
bx p
bx o
bx n
bx m
bx l
bx k
xj
xi
xh
xg
bx f
bx e
xd
bx c
bx b
xa
x`
x_
x^
bx ]
b0 \
b100000000001010010011 [
xZ
bx Y
0X
xW
xV
bx U
xT
bx S
bx R
bx Q
bx P
bx O
bx N
bx M
bx L
bx K
bx J
bx I
bx H
xG
bx F
bx E
bx D
bx C
bx B
bx A
bx @
1?
1>
1=
1<
bx ;
bx :
x9
x8
x7
bx 6
x5
bx 4
x3
x2
x1
bx 0
bx /
bx .
bx -
x,
x+
bx *
bx )
x(
bx '
bx &
bx %
x$
x#
0"
0!
$end
#5
b0 C
b0 3"
b0 L"
b0 D
b0 4"
b0 K"
0j
1d
0?"
b0 e
b0 7"
b0 >"
1$
b0 9"
b0 <"
1g
1i
b0 S
b0 5"
b0 :"
b0 ;"
0h
0Z
b0 Q
b0 X"
b0 a"
b0 M
b0 S"
b0 c"
b0 O
b0 W"
b0 b"
b0 L
b0 T"
b0 d"
b0 F
b0 P"
b0 E
b0 Q"
b0 Y
b0 Z"
b0 `"
b0 U
b0 Y"
b0 ^"
b0 c
b0 ["
b0 ]"
0G
0T
0V
0W
0^
0`
b0 J
b0 O"
0B"
b0 A"
b0 C"
b0 b
b0 ,"
b0 6"
b0 ="
b0 D"
0M"
0N"
b100 k"
b0 K
b0 G"
0E"
b0 N
b0 s"
b0 w"
0+
0_
b0 B
b0 V"
b0 f"
b0 I
b0 H"
0F"
b0 A
b0 U"
b0 e"
b0 H
b0 2"
b0 }"
b0 0
b0 R"
b0 \"
b0 _"
b0 x
b0 u
b0 P
b0 $"
b0 1"
b0 R
b0 ""
b0 0"
b0 /
b0 /"
b0 w
b0 f
b0 8"
b0 ]
b0 t
b0 *"
b0 .
b0 s
b0 ."
b0 ;
b0 J"
b0 )"
b0 :
b0 I"
b0 ("
b0 )
b0 +"
b0 @"
b0 p
0&"
0!"
b0 |
03
0z
0r
0a
b0 @
b0 r"
b0 v"
b0 #"
b0 -
b0 m
b0 -"
b0 q"
b0 u"
b0 %
b0 k
b0 i"
b0 v
b0 *
b0 q
b0 p"
0(
0#
b0 o
08
05
0~
b0 {
02
01
0,
b0 &
b0 l
b0 y"
b0 '
b0 n
b0 z"
b0 6
b0 %"
b0 |"
b0 y
09
07
0'"
b0 4
b0 }
b0 {"
1!
#10
b100000000000 x"
b100000 g"
0!
#15
1!
#20
b100000000000 x"
b100000 g"
0!
#25
1!
#30
0=
0?
0<
0>
0!
1"
#35
b1000 k"
b1 L
b1 T"
b1 d"
b1 E
b1 Q"
b1 c
b1 ["
b1 ]"
1G
1`
b1 Y
b1 Z"
b1 `"
b100000000001110010011 [
b100000000001110010011 j"
b100000000001110010011 n"
b100 \
b100 h"
b100 l"
b100 m"
1(
b100000000001010010011 0
b100000000001010010011 R"
b100000000001010010011 \"
b100000000001010010011 _"
b100000000001010010011 x
1!
#40
0!
#45
0d
b1 e
b1 7"
b1 >"
b1100 k"
b101 J
b101 O"
b10011 C"
b1 9"
b1 <"
b1011100000000010010010011 [
b1011100000000010010010011 j"
b1011100000000010010010011 n"
b1000 \
b1000 h"
b1000 l"
b1000 m"
b100000000001110010011 0
b100000000001110010011 R"
b100000000001110010011 \"
b100000000001110010011 _"
b100000000001110010011 x
b100 u
b100000000001010010011 /
b100000000001010010011 /"
b100000000001010010011 w
b1 f
b1 8"
b1 .
b1 s
b1 ."
b1 ;
b1 J"
b1 )"
b1 )
b1 +"
b1 @"
b1 p
1&"
1a
1!
#50
0!
#55
1E"
b10000 k"
b101 K
b101 G"
b111 J
b111 O"
b10111 L
b10111 T"
b10111 d"
b10111 E
b10111 Q"
b10111 Y
b10111 Z"
b10111 `"
b10011001001000001001100011 [
b10011001001000001001100011 j"
b10011001001000001001100011 n"
b1100 \
b1100 h"
b1100 l"
b1100 m"
b1 -
b1 m
b1 -"
b1 q"
b1 u"
b1 %
b1 k
b1 i"
b100000000001010010011 v
0(
b1 o
18
b100000000001110010011 /
b100000000001110010011 /"
b100000000001110010011 w
b101 f
b101 8"
b100 ]
b100 t
b100 *"
b1011100000000010010010011 0
b1011100000000010010010011 R"
b1011100000000010010010011 \"
b1011100000000010010010011 _"
b1011100000000010010010011 x
b1000 u
1!
#60
0!
#65
b10111 e
b10111 7"
b10111 >"
1F"
b10100 k"
b1001 M
b1001 S"
b1001 c"
b110 L
b110 T"
b110 d"
b1001 F
b1001 P"
b110 E
b110 Q"
b100100 Y
b100100 Z"
b100100 `"
bx U
bx Y"
bx ^"
b10 c
b10 ["
b10 ]"
0G
1^
0`
b1001 J
b1001 O"
b10111 9"
b10111 <"
b111 K
b111 G"
b1 A
b1 U"
b1 e"
b1 H
b1 2"
b1 }"
b101 B
b101 V"
b101 f"
b101 I
b101 H"
b10011101001000000001100011 [
b10011101001000000001100011 j"
b10011101001000000001100011 n"
b10000 \
b10000 h"
b10000 l"
b10000 m"
b10011001001000001001100011 0
b10011001001000001001100011 R"
b10011001001000001001100011 \"
b10011001001000001001100011 _"
b10011001001000001001100011 x
b1100 u
b1011100000000010010010011 /
b1011100000000010010010011 /"
b1011100000000010010010011 w
b1000 ]
b1000 t
b1000 *"
b11111 f
b11111 8"
b10111 .
b10111 s
b10111 ."
b10111 ;
b10111 J"
b10111 )"
b101 %
b101 k
b101 i"
b100000000001110010011 v
b1 &
b1 l
b1 y"
b1 '
b1 n
b1 z"
b100000000001010010011 y
19
17
1'"
1!
#70
0!
#75
1d
b10111 :"
b10111 ;"
b10 D
b10 4"
b10 K"
0j
b0 e
b0 7"
b0 >"
b11000 k"
b111 B
b111 V"
b111 f"
b111 I
b111 H"
b1001 K
b1001 G"
b100 J
b100 O"
b1100011 C"
b1010 b
b1010 ,"
b1010 6"
b1010 ="
b1010 D"
b0 9"
b0 <"
b111 L
b111 T"
b111 d"
b111 E
b111 Q"
b100000 Y
b100000 Z"
b100000 `"
b11000111000010000110011 [
b11000111000010000110011 j"
b11000111000010000110011 n"
b10100 \
b10100 h"
b10100 l"
b10100 m"
b101 &
b101 l
b101 y"
b100000000001110010011 y
b10111 -
b10111 m
b10111 -"
b10111 q"
b10111 u"
b11111 %
b11111 k
b11111 i"
b1011100000000010010010011 v
b10011001001000001001100011 /
b10011001001000001001100011 /"
b10011001001000001001100011 w
b1100 ]
b1100 t
b1100 *"
b110000 f
b110000 8"
b100100 .
b100100 s
b100100 ."
b110 ;
b110 J"
b110 )"
b1001 :
b1001 I"
b1001 ("
b10 )
b10 +"
b10 @"
b10 p
0&"
bx |
1r
0a
b10011101001000000001100011 0
b10011101001000000001100011 R"
b10011101001000000001100011 \"
b10011101001000000001100011 _"
b10011101001000000001100011 x
b10000 u
1!
#80
b1 O
b1 W"
b1 b"
0!
#85
b1 D
b1 4"
b1 K"
0j
b1 9"
b1 <"
1d
b1 S
b1 5"
b0 e
b0 7"
b0 >"
b11100 k"
b1 Q
b1 X"
b1 a"
b111 M
b111 S"
b111 c"
b0 O
b0 W"
b0 b"
b110 L
b110 T"
b110 d"
b111 F
b111 P"
b110 E
b110 Q"
b0 Y
b0 Z"
b0 `"
b0 U
b0 Y"
b0 ^"
b1 c
b1 ["
b1 ]"
1G
0^
b0 J
b0 O"
b10111 :"
b10111 ;"
b100 K
b100 G"
0E"
b10111 A
b10111 U"
b10111 e"
b10111 H
b10111 2"
b10111 }"
b1001 B
b1001 V"
b1001 f"
b1001 I
b1001 H"
b11100000000001100110011 [
b11100000000001100110011 j"
b11100000000001100110011 n"
b11000 \
b11000 h"
b11000 l"
b11000 m"
b11000111000010000110011 0
b11000111000010000110011 R"
b11000111000010000110011 \"
b11000111000010000110011 _"
b11000111000010000110011 x
b10100 u
b1 P
b1 $"
b1 1"
b10011101001000000001100011 /
b10011101001000000001100011 /"
b10011101001000000001100011 w
b10000 ]
b10000 t
b10000 *"
b110000 f
b110000 8"
b100000 .
b100000 s
b100000 ."
b111 ;
b111 J"
b111 )"
b0 -
b0 m
b0 -"
b0 q"
b0 u"
b110000 %
b110000 k
b110000 i"
b10011001001000001001100011 v
b1010 *
b1010 q
b1010 p"
1(
b10 o
08
bx {
1,
b11111 &
b11111 l
b11111 y"
b10111 '
b10111 n
b10111 z"
b1011100000000010010010011 y
1!
#90
0!
#95
b0 D
b0 4"
b0 K"
0j
0?"
b1 :"
b1 ;"
b0 9"
b0 <"
0d
b0 S
b0 5"
b1 e
b1 7"
b1 >"
b100000 k"
b100 B
b100 V"
b100 f"
b100 I
b100 H"
0F"
b0xx0000 A
b0xx0000 U"
b0xx0000 e"
b0xx0000 H
b0xx0000 2"
b0xx0000 }"
b0 K
b0 G"
b1000 J
b1000 O"
b110011 C"
b0 b
b0 ,"
b0 6"
b0 ="
b0 D"
b0 Q
b0 X"
b0 a"
b0 M
b0 S"
b0 c"
b1 O
b1 W"
b1 b"
b111 L
b111 T"
b111 d"
b0 F
b0 P"
b111 E
b111 Q"
b100000000000001110110011 [
b100000000000001110110011 j"
b100000000000001110110011 n"
b11100 \
b11100 h"
b11100 l"
b11100 m"
b110000 &
b110000 l
b110000 y"
b0 '
b0 n
b0 z"
b10011001001000001001100011 y
09
07
0'"
bx 4
bx }
bx {"
b1 @
b1 r"
b1 v"
b1 #"
b10011101001000000001100011 v
b0 P
b0 $"
b0 1"
b1 R
b1 ""
b1 0"
b11000111000010000110011 /
b11000111000010000110011 /"
b11000111000010000110011 w
b10100 ]
b10100 t
b10100 *"
b10100 f
b10100 8"
b0 .
b0 s
b0 ."
b110 ;
b110 J"
b110 )"
b111 :
b111 I"
b111 ("
b1 )
b1 +"
b1 @"
b1 p
1&"
b0 |
0r
b11100000000001100110011 0
b11100000000001100110011 R"
b11100000000001100110011 \"
b11100000000001100110011 _"
b11100000000001100110011 x
b11000 u
1!
#100
0!
#105
0d
b1 9"
b1 <"
b1 e
b1 7"
b1 >"
b1 S
b1 5"
b0 :"
b0 ;"
1E"
b100100 k"
b0 O
b0 W"
b0 b"
b1000 L
b1000 T"
b1000 d"
b1000 E
b1000 Q"
b110 J
b110 O"
b1000 K
b1000 G"
b0 B
b0 V"
b0 f"
b0 I
b0 H"
b100101000001010010011 [
b100101000001010010011 j"
b100101000001010010011 n"
b100000 \
b100000 h"
b100000 l"
b100000 m"
b100000000000001110110011 0
b100000000000001110110011 R"
b100000000000001110110011 \"
b100000000000001110110011 _"
b100000000000001110110011 x
b11100 u
b1 P
b1 $"
b1 1"
b0 R
b0 ""
b0 0"
b11100000000001100110011 /
b11100000000001100110011 /"
b11100000000001100110011 w
b11000 f
b11000 8"
b11000 ]
b11000 t
b11000 *"
b111 ;
b111 J"
b111 )"
b0 :
b0 I"
b0 ("
b0 @
b0 r"
b0 v"
b0 #"
b1 -
b1 m
b1 -"
b1 q"
b1 u"
b10100 %
b10100 k
b10100 i"
b11000111000010000110011 v
b0 *
b0 q
b0 p"
0(
b1 o
18
b0 {
0,
b10011101001000000001100011 y
1!
#110
0!
#115
b1 C
b1 3"
b1 L"
0d
b1 e
b1 7"
b1 >"
b1 9"
b1 <"
1F"
b1 S
b1 5"
b101000 k"
b1000 B
b1000 V"
b1000 f"
b1000 I
b1000 H"
b1 A
b1 U"
b1 e"
b1 H
b1 2"
b1 }"
b110 K
b110 G"
b111 J
b111 O"
b1 Q
b1 X"
b1 a"
b101 M
b101 S"
b101 c"
b1 L
b1 T"
b1 d"
b101 F
b101 P"
b1 E
b1 Q"
1`
b1 Y
b1 Z"
b1 `"
b11111110010101001001100011100011 [
b11111110010101001001100011100011 j"
b11111110010101001001100011100011 n"
b100100 \
b100100 h"
b100100 l"
b100100 m"
b10100 &
b10100 l
b10100 y"
b1 '
b1 n
b1 z"
b11000111000010000110011 y
19
17
1'"
b0 4
b0 }
b0 {"
b1 @
b1 r"
b1 v"
b1 #"
b11000 %
b11000 k
b11000 i"
b11100000000001100110011 v
b0 P
b0 $"
b0 1"
b100000000000001110110011 /
b100000000000001110110011 /"
b100000000000001110110011 w
b11100 f
b11100 8"
b11100 ]
b11100 t
b11100 *"
b1000 ;
b1000 J"
b1000 )"
b100101000001010010011 0
b100101000001010010011 R"
b100101000001010010011 \"
b100101000001010010011 _"
b100101000001010010011 x
b100000 u
1!
#120
0!
#125
b0 S
b0 5"
b0 C
b0 3"
b0 L"
b10 e
b10 7"
b10 >"
b1 :"
b1 ;"
b101100 k"
b10111 Q
b10111 X"
b10111 a"
b1001 M
b1001 S"
b1001 c"
b1 O
b1 W"
b1 b"
b101 L
b101 T"
b101 d"
b1001 F
b1001 P"
b101 E
b101 Q"
b11111111111111111111111111110000 Y
b11111111111111111111111111110000 Z"
b11111111111111111111111111110000 `"
bx U
bx Y"
bx ^"
b10 c
b10 ["
b10 ]"
0G
1^
0`
b101 J
b101 O"
b10011 C"
b111 K
b111 G"
b110 B
b110 V"
b110 f"
b110 I
b110 H"
b100000000000011001101111 [
b100000000000011001101111 j"
b100000000000011001101111 n"
b101000 \
b101000 h"
b101000 l"
b101000 m"
b11111110010101001001100011100011 0
b11111110010101001001100011100011 R"
b11111110010101001001100011100011 \"
b11111110010101001001100011100011 _"
b11111110010101001001100011100011 x
b100100 u
b1 R
b1 ""
b1 0"
b100101000001010010011 /
b100101000001010010011 /"
b100101000001010010011 w
b100000 ]
b100000 t
b100000 *"
b100001 f
b100001 8"
b1 .
b1 s
b1 ."
b1 ;
b1 J"
b1 )"
b101 :
b101 I"
b101 ("
1a
b11100 %
b11100 k
b11100 i"
b100000000000001110110011 v
b11000 &
b11000 l
b11000 y"
b11100000000001100110011 y
1!
#130
0!
#135
b10 C
b10 3"
b10 L"
1d
b10 S
b10 5"
b10111 :"
b10111 ;"
b0 e
b0 7"
b0 >"
b110000 k"
b111 B
b111 V"
b111 f"
b111 I
b111 H"
b101 K
b101 G"
b10001 J
b10001 O"
1B"
b1 A"
b1100011 C"
b1001 b
b1001 ,"
b1001 6"
b1001 ="
b1001 D"
b10 9"
b10 <"
b0 Q
b0 X"
b0 a"
b0 M
b0 S"
b0 c"
b1000 L
b1000 T"
b1000 d"
b0 F
b0 P"
b1000 E
b1000 Q"
b10 U
b10 Y"
b10 ^"
bx c
bx ["
bx ]"
1G
1W
0^
1`
b1000 Y
b1000 Z"
b1000 `"
b100000000010000010011 [
b100000000010000010011 j"
b100000000010000010011 n"
b101100 \
b101100 h"
b101100 l"
b101100 m"
b11100 &
b11100 l
b11100 y"
b100000000000001110110011 y
b0 @
b0 r"
b0 v"
b0 #"
b10 -
b10 m
b10 -"
b10 q"
b10 u"
b100001 %
b100001 k
b100001 i"
b100101000001010010011 v
b1 P
b1 $"
b1 1"
b10111 R
b10111 ""
b10111 0"
b11111110010101001001100011100011 /
b11111110010101001001100011100011 /"
b11111110010101001001100011100011 w
b100100 ]
b100100 t
b100100 *"
b10100 f
b10100 8"
b11111111111111111111111111110000 .
b11111111111111111111111111110000 s
b11111111111111111111111111110000 ."
b101 ;
b101 J"
b101 )"
b1001 :
b1001 I"
b1001 ("
b10 )
b10 +"
b10 @"
b10 p
0&"
bx |
1r
0a
b100000000000011001101111 0
b100000000000011001101111 R"
b100000000000011001101111 \"
b100000000000011001101111 _"
b100000000000011001101111 x
b101000 u
1!
#140
0!
#145
b0 C
b0 3"
b0 L"
1<
1=
1?
1+
1_
1t"
b0 :"
b0 ;"
b10100 k"
b0 O
b0 W"
b0 b"
b1 L
b1 T"
b1 d"
b1 E
b1 Q"
b1 Y
b1 Z"
b1 `"
b0 U
b0 Y"
b0 ^"
b1 c
b1 ["
b1 ]"
0W
b1100 J
b1100 O"
0B"
b0 A"
b1101111 C"
b1000 9"
b1000 <"
b1 S
b1 5"
b10001 K
b10001 G"
0E"
b10 A
b10 U"
b10 e"
b10 H
b10 2"
b10 }"
b101 B
b101 V"
b101 f"
b101 I
b101 H"
b0 [
b0 j"
b0 n"
b110000 \
b110000 h"
b110000 l"
b110000 m"
b100000000010000010011 0
b100000000010000010011 R"
b100000000010000010011 \"
b100000000010000010011 _"
b100000000010000010011 x
b101100 u
b0 R
b0 ""
b0 0"
b100000000000011001101111 /
b100000000000011001101111 /"
b100000000000011001101111 w
b101000 ]
b101000 t
b101000 *"
b110000 f
b110000 8"
b1000 .
b1000 s
b1000 ."
b1000 ;
b1000 J"
b1000 )"
b0 :
b0 I"
b0 ("
bx )
bx +"
bx @"
bx p
1&"
b10 |
1z
0r
1a
b10 @
b10 r"
b10 v"
b10 #"
b0 -
b0 m
b0 -"
b0 q"
b0 u"
b10100 %
b10100 k
b10100 i"
b11111110010101001001100011100011 v
b1001 *
b1001 q
b1001 p"
1(
b10 o
08
bx {
1,
b100001 &
b100001 l
b100001 y"
b10 '
b10 n
b10 z"
b100101000001010010011 y
1!
#150
0!
